sim.vcd
$date
	Sat Nov 23 15:04:34 2024
$end
$version
	Icarus Verilog
$end
$timescale
	1ps
$end
$scope module sim $end
$var reg 1 ! clk $end
$scope module test $end
$var wire 32 " EX_PC_imm [31:0] $end
$var wire 1 ! clk $end
$var wire 1 # return $end
$var wire 1 $ jump $end
$var wire 1 % branch $end
$var wire 1 & WB_return $end
$var wire 5 ' WB_WriteReg [4:0] $end
$var wire 32 ( WB_RegWriteData [31:0] $end
$var wire 1 ) WB_RegWrite $end
$var wire 32 * WB_ReadData [31:0] $end
$var wire 32 + WB_PC_4 [31:0] $end
$var wire 1 , WB_MemtoReg $end
$var wire 1 - WB_MemRead $end
$var wire 32 . WB_Address [31:0] $end
$var wire 1 / RegWrite $end
$var wire 1 0 PCsel $end
$var wire 1 1 PCWrite $end
$var wire 1 2 PCSrc $end
$var wire 32 3 PCMux1 [31:0] $end
$var wire 1 4 MemtoReg $end
$var wire 1 5 MemWrite $end
$var wire 1 6 MemSrc $end
$var wire 1 7 MemRead $end
$var wire 5 8 MEM_rs2 [4:0] $end
$var wire 1 9 MEM_return $end
$var wire 32 : MEM_registerReadData2 [31:0] $end
$var wire 5 ; MEM_rd [4:0] $end
$var wire 3 < MEM_funct3 [2:0] $end
$var wire 32 = MEM_dataMemoryReadData [31:0] $end
$var wire 32 > MEM_WriteInput [31:0] $end
$var wire 1 ? MEM_RegWrite $end
$var wire 1 @ MEM_PCsel $end
$var wire 32 A MEM_PC_imm [31:0] $end
$var wire 32 B MEM_PC_4 [31:0] $end
$var wire 1 C MEM_MemtoReg $end
$var wire 1 D MEM_MemWrite $end
$var wire 1 E MEM_MemRead $end
$var wire 1 F MEM_Jump $end
$var wire 1 G MEM_Branch $end
$var wire 32 H MEM_Address [31:0] $end
$var wire 32 I ImmShifted [31:0] $end
$var wire 32 J IF_instruction [31:0] $end
$var wire 32 K IF_PC_4 [31:0] $end
$var wire 32 L IF_PC [31:0] $end
$var wire 1 M IF_ID_Write $end
$var wire 1 N IF_Flush $end
$var wire 5 O ID_rs2 [4:0] $end
$var wire 5 P ID_rs1 [4:0] $end
$var wire 1 Q ID_return $end
$var wire 32 R ID_instruction [31:0] $end
$var wire 32 S ID_immediate [31:0] $end
$var wire 1 T ID_RegWrite $end
$var wire 32 U ID_ReadData2 [31:0] $end
$var wire 32 V ID_ReadData1 [31:0] $end
$var wire 1 W ID_PCsel $end
$var wire 32 X ID_PC_4 [31:0] $end
$var wire 32 Y ID_PC [31:0] $end
$var wire 7 Z ID_Opcode [6:0] $end
$var wire 1 [ ID_MemtoReg $end
$var wire 1 \ ID_MemWrite $end
$var wire 1 ] ID_MemRead $end
$var wire 32 ^ ID_Jumpbase [31:0] $end
$var wire 1 _ ID_Jump $end
$var wire 32 ` ID_FinalWriteData [31:0] $end
$var wire 1 a ID_Branch $end
$var wire 1 b ID_ALUSrc $end
$var wire 2 c ID_ALUOp [1:0] $end
$var wire 5 d EX_rs2 [4:0] $end
$var wire 5 e EX_rs1 [4:0] $end
$var wire 1 f EX_return $end
$var wire 32 g EX_registerReadData2 [31:0] $end
$var wire 32 h EX_registerReadData1 [31:0] $end
$var wire 5 i EX_rd [4:0] $end
$var wire 1 j EX_instruction_30 $end
$var wire 32 k EX_immediate [31:0] $end
$var wire 3 l EX_funct3 [2:0] $end
$var wire 1 m EX_control $end
$var wire 1 n EX_RegWrite $end
$var wire 1 o EX_PCsel $end
$var wire 32 p EX_PC_4 [31:0] $end
$var wire 32 q EX_PC [31:0] $end
$var wire 1 r EX_MemtoReg $end
$var wire 1 s EX_MemWrite $end
$var wire 1 t EX_MemRead $end
$var wire 1 u EX_Jump $end
$var wire 1 v EX_Branch $end
$var wire 1 w EX_ALUSrc $end
$var wire 32 x EX_ALUResult [31:0] $end
$var wire 2 y EX_ALUOp [1:0] $end
$var wire 1 z CompareResult $end
$var wire 1 { ALUSrc $end
$var wire 2 | ALUOp [1:0] $end
$var wire 32 } ALUInput2Hazard [31:0] $end
$var wire 32 ~ ALUInput2 [31:0] $end
$var wire 32 !" ALUInput1 [31:0] $end
$var wire 2 "" ALUForwardB [1:0] $end
$var wire 2 #" ALUForwardA [1:0] $end
$var wire 4 $" ALUControlSignal [3:0] $end
$scope module ALU $end
$var wire 32 %" input2 [31:0] $end
$var wire 32 &" input1 [31:0] $end
$var wire 4 '" ALUcontrol [3:0] $end
$var reg 32 (" ALUresult [31:0] $end
$upscope $end
$scope module ALU_control $end
$var wire 1 j ins30 $end
$var wire 3 )" funct3 [2:0] $end
$var wire 2 *" ALUOp [1:0] $end
$var reg 4 +" ALUcontrol [3:0] $end
$upscope $end
$scope module ALU_mux1 $end
$var wire 2 ," sel [1:0] $end
$var wire 32 -" in10 [31:0] $end
$var wire 32 ." in01 [31:0] $end
$var wire 32 /" in00 [31:0] $end
$var reg 32 0" out [31:0] $end
$upscope $end
$scope module ALU_mux2 $end
$var wire 2 1" sel [1:0] $end
$var wire 32 2" in10 [31:0] $end
$var wire 32 3" in01 [31:0] $end
$var wire 32 4" in00 [31:0] $end
$var reg 32 5" out [31:0] $end
$upscope $end
$scope module ALUin_mux $end
$var wire 32 6" input0 [31:0] $end
$var wire 1 w sel $end
$var wire 32 7" out [31:0] $end
$var wire 32 8" input1 [31:0] $end
$upscope $end
$scope module EX_MEM_reg $end
$var wire 32 9" ALUresult [31:0] $end
$var wire 32 :" EX_PC_imm [31:0] $end
$var wire 1 ! clock $end
$var wire 32 ;" readdata2 [31:0] $end
$var wire 5 <" EX_rs2 [4:0] $end
$var wire 1 f EX_return $end
$var wire 5 =" EX_rd [4:0] $end
$var wire 3 >" EX_funct3 [2:0] $end
$var wire 1 n EX_RegWrite $end
$var wire 1 o EX_PCsel $end
$var wire 32 ?" EX_PC_4 [31:0] $end
$var wire 1 r EX_MemtoReg $end
$var wire 1 s EX_MemWrite $end
$var wire 1 t EX_MemRead $end
$var wire 1 u EX_Jump $end
$var wire 1 v EX_Branch $end
$var reg 32 @" Address [31:0] $end
$var reg 1 G MEM_Branch $end
$var reg 1 F MEM_Jump $end
$var reg 1 E MEM_MemRead $end
$var reg 1 D MEM_MemWrite $end
$var reg 1 C MEM_MemtoReg $end
$var reg 32 A" MEM_PC_4 [31:0] $end
$var reg 32 B" MEM_PC_imm [31:0] $end
$var reg 1 @ MEM_PCsel $end
$var reg 1 ? MEM_RegWrite $end
$var reg 3 C" MEM_funct3 [2:0] $end
$var reg 5 D" MEM_rd [4:0] $end
$var reg 1 9 MEM_return $end
$var reg 5 E" MEM_rs2 [4:0] $end
$var reg 32 F" Writedata [31:0] $end
$upscope $end
$scope module ID_EX_reg $end
$var wire 3 G" ID_funct3 [2:0] $end
$var wire 1 H" ID_ins30 $end
$var wire 5 I" ID_rd [4:0] $end
$var wire 5 J" ID_rs1 [4:0] $end
$var wire 5 K" ID_rs2 [4:0] $end
$var wire 1 ! clock $end
$var wire 1 Q ID_return $end
$var wire 32 L" ID_readdata2 [31:0] $end
$var wire 32 M" ID_readdata1 [31:0] $end
$var wire 32 N" ID_immediate [31:0] $end
$var wire 1 T ID_RegWrite $end
$var wire 1 W ID_PCsel $end
$var wire 32 O" ID_PC_4 [31:0] $end
$var wire 32 P" ID_PC [31:0] $end
$var wire 1 [ ID_MemtoReg $end
$var wire 1 \ ID_MemWrite $end
$var wire 1 ] ID_MemRead $end
$var wire 1 _ ID_Jump $end
$var wire 1 a ID_Branch $end
$var wire 2 Q" ID_ALUop [1:0] $end
$var wire 1 b ID_ALUSrc $end
$var reg 1 w EX_ALUSrc $end
$var reg 2 R" EX_ALUop [1:0] $end
$var reg 1 v EX_Branch $end
$var reg 1 u EX_Jump $end
$var reg 1 t EX_MemRead $end
$var reg 1 s EX_MemWrite $end
$var reg 1 r EX_MemtoReg $end
$var reg 32 S" EX_PC [31:0] $end
$var reg 32 T" EX_PC_4 [31:0] $end
$var reg 1 o EX_PCsel $end
$var reg 1 n EX_RegWrite $end
$var reg 3 U" EX_funct3 [2:0] $end
$var reg 32 V" EX_immediate [31:0] $end
$var reg 1 j EX_ins30 $end
$var reg 5 W" EX_rd [4:0] $end
$var reg 32 X" EX_readdata1 [31:0] $end
$var reg 32 Y" EX_readdata2 [31:0] $end
$var reg 1 f EX_return $end
$var reg 5 Z" EX_rs1 [4:0] $end
$var reg 5 [" EX_rs2 [4:0] $end
$upscope $end
$scope module IF_ID_reg $end
$var wire 1 ! clock $end
$var wire 32 \" IF_instruction [31:0] $end
$var wire 32 ]" IF_PC_4 [31:0] $end
$var wire 32 ^" IF_PC [31:0] $end
$var wire 1 M IF_ID_Write $end
$var wire 1 N IF_Flush $end
$var reg 7 _" ID_Opcode [6:0] $end
$var reg 32 `" ID_PC [31:0] $end
$var reg 32 a" ID_PC_4 [31:0] $end
$var reg 32 b" ID_instruction [31:0] $end
$var reg 5 c" ID_rs1 [4:0] $end
$var reg 5 d" ID_rs2 [4:0] $end
$upscope $end
$scope module JumpBase $end
$var wire 32 e" input0 [31:0] $end
$var wire 1 W sel $end
$var wire 32 f" out [31:0] $end
$var wire 32 g" input1 [31:0] $end
$upscope $end
$scope module MEM_WB_reg $end
$var wire 32 h" MEM_Address [31:0] $end
$var wire 1 E MEM_MemRead $end
$var wire 1 C MEM_MemtoReg $end
$var wire 32 i" MEM_PC_4 [31:0] $end
$var wire 1 ? MEM_RegWrite $end
$var wire 5 j" MEM_rd [4:0] $end
$var wire 1 9 MEM_return $end
$var wire 1 ! clock $end
$var wire 32 k" MEM_Readdata [31:0] $end
$var reg 32 l" WB_Address [31:0] $end
$var reg 1 - WB_MemRead $end
$var reg 1 , WB_MemtoReg $end
$var reg 32 m" WB_PC_4 [31:0] $end
$var reg 32 n" WB_Readdata [31:0] $end
$var reg 1 ) WB_RegWrite $end
$var reg 5 o" WB_rd [4:0] $end
$var reg 1 & WB_return $end
$upscope $end
$scope module WB_data $end
$var wire 32 p" input1 [31:0] $end
$var wire 1 & sel $end
$var wire 32 q" out [31:0] $end
$var wire 32 r" input0 [31:0] $end
$upscope $end
$scope module adder $end
$var wire 32 s" input2 [31:0] $end
$var wire 32 t" out [31:0] $end
$var wire 32 u" input1 [31:0] $end
$upscope $end
$scope module adder_jump $end
$var wire 32 v" input1 [31:0] $end
$var wire 32 w" out [31:0] $end
$var wire 32 x" input2 [31:0] $end
$upscope $end
$scope module branch_control $end
$var wire 1 _ ID_Jump $end
$var wire 1 a ID_Branch $end
$var wire 1 z CompareResult $end
$var reg 1 N IF_Flush $end
$var reg 1 2 PCSrc $end
$upscope $end
$scope module comparator $end
$var wire 3 y" ID_funct3 [2:0] $end
$var wire 32 z" ID_readdata2 [31:0] $end
$var wire 32 {" ID_readdata1 [31:0] $end
$var reg 1 z CompareResult $end
$upscope $end
$scope module controlMux $end
$var wire 1 # return $end
$var wire 1 $ jump $end
$var wire 1 % branch $end
$var wire 1 / RegWrite $end
$var wire 1 0 PCsel $end
$var wire 1 4 MemtoReg $end
$var wire 1 5 MemWrite $end
$var wire 1 7 MemRead $end
$var wire 1 m EX_control $end
$var wire 1 { ALUSrc $end
$var wire 2 |" ALUOp [1:0] $end
$var reg 2 }" ID_ALUOp [1:0] $end
$var reg 1 b ID_ALUSrc $end
$var reg 1 a ID_Branch $end
$var reg 1 _ ID_Jump $end
$var reg 1 ] ID_MemRead $end
$var reg 1 \ ID_MemWrite $end
$var reg 1 [ ID_MemtoReg $end
$var reg 1 W ID_PCsel $end
$var reg 1 T ID_RegWrite $end
$var reg 1 Q ID_return $end
$upscope $end
$scope module control_instance $end
$var wire 7 ~" opcode [6:0] $end
$var reg 2 !# ALUOp [1:0] $end
$var reg 1 { ALUSrc $end
$var reg 1 7 MemRead $end
$var reg 1 5 MemWrite $end
$var reg 1 4 MemtoReg $end
$var reg 1 0 PCsel $end
$var reg 1 / RegWrite $end
$var reg 1 % branch $end
$var reg 1 $ jump $end
$var reg 1 # return $end
$upscope $end
$scope module data_mem $end
$var wire 1 E MemRead $end
$var wire 1 D MemWrite $end
$var wire 32 "# address [31:0] $end
$var wire 3 ## funct3 [2:0] $end
$var wire 32 $# writeData [31:0] $end
$var reg 32 %# readData [31:0] $end
$var integer 32 &# i [31:0] $end
$upscope $end
$scope module forwarding_unit $end
$var wire 5 '# EX_RegisterRs1 [4:0] $end
$var wire 5 (# EX_RegisterRs2 [4:0] $end
$var wire 7 )# ID_Opcode [6:0] $end
$var wire 5 *# ID_RegisterRs1 [4:0] $end
$var wire 5 +# ID_RegisterRs2 [4:0] $end
$var wire 1 E MEM_MemRead $end
$var wire 1 D MEM_MemWrite $end
$var wire 1 ? MEM_RegWrite $end
$var wire 5 ,# MEM_RegisterRd [4:0] $end
$var wire 5 -# MEM_rd [4:0] $end
$var wire 5 .# MEM_rs2 [4:0] $end
$var wire 1 - WB_MemRead $end
$var wire 1 ) WB_RegWrite $end
$var wire 5 /# WB_RegisterRd [4:0] $end
$var reg 2 0# ForwardA [1:0] $end
$var reg 2 1# ForwardB [1:0] $end
$var reg 1 6 MemSrc $end
$upscope $end
$scope module hazarddetectionunit $end
$var wire 1 t EX_memRead $end
$var wire 5 2# EX_rd [4:0] $end
$var wire 1 n EX_regWrite $end
$var wire 7 3# ID_opcode [6:0] $end
$var wire 5 4# ID_rs1 [4:0] $end
$var wire 5 5# ID_rs2 [4:0] $end
$var wire 5 6# MEM_rd [4:0] $end
$var wire 1 ? MEM_regWrite $end
$var reg 1 m EX_control $end
$var reg 1 M IF_ID_Write $end
$var reg 1 1 PCWrite $end
$upscope $end
$scope module imm_gen $end
$var wire 32 7# instr [31:0] $end
$var reg 32 8# imm [31:0] $end
$var integer 32 9# i [31:0] $end
$upscope $end
$scope module inst_Mem $end
$var wire 32 :# instruction [31:0] $end
$var wire 32 ;# PC [31:0] $end
$upscope $end
$scope module pc $end
$var wire 32 <# PCMux [31:0] $end
$var wire 1 2 PCSrc $end
$var wire 1 1 PCWrite $end
$var wire 1 ! clk $end
$var reg 32 =# PC [31:0] $end
$upscope $end
$scope module reg_file $end
$var wire 1 ) RegWrite $end
$var wire 1 ! clk $end
$var wire 32 ># rd_d1 [31:0] $end
$var wire 32 ?# rd_d2 [31:0] $end
$var wire 5 @# rd_r1 [4:0] $end
$var wire 5 A# rd_r2 [4:0] $end
$var wire 32 B# wt_d [31:0] $end
$var wire 5 C# wt_reg [4:0] $end
$var integer 32 D# i [31:0] $end
$upscope $end
$scope module shifter $end
$var wire 32 E# in [31:0] $end
$var wire 32 F# out [31:0] $end
$upscope $end
$scope module toReg_mux $end
$var wire 32 G# input0 [31:0] $end
$var wire 32 H# input1 [31:0] $end
$var wire 1 , sel $end
$var wire 32 I# out [31:0] $end
$upscope $end
$scope module write_data_mux $end
$var wire 32 J# input0 [31:0] $end
$var wire 32 K# input1 [31:0] $end
$var wire 1 6 sel $end
$var wire 32 L# out [31:0] $end
$upscope $end
$upscope $end
$upscope $end
$enddefinitions $end
#0
$dumpvars
b0 L#
b0 K#
b0 J#
b0 I#
b0 H#
b0 G#
b0 F#
b0 E#
b100000 D#
b0 C#
b0 B#
b0 A#
b0 @#
b0 ?#
b0 >#
b0 =#
b0 <#
b0 ;#
b111001100100000000001100010011 :#
bx 9#
b0 8#
b0 7#
b0 6#
b0 5#
b0 4#
b0 3#
b0 2#
b0 1#
b0 0#
b0 /#
b0 .#
b0 -#
b0 ,#
b0 +#
b0 *#
b0 )#
b0 (#
b0 '#
b100000 &#
b0 %#
b0 $#
b0 ##
b0 "#
b0 !#
b0 ~"
b0 }"
b0 |"
b0 {"
b0 z"
b0 y"
b0 x"
b0 w"
b0 v"
b0 u"
b100 t"
b100 s"
b0 r"
b0 q"
b0 p"
b0 o"
b0 n"
b0 m"
b0 l"
b0 k"
b0 j"
b0 i"
b0 h"
b0 g"
b0 f"
b0 e"
b0 d"
b0 c"
b0 b"
b0 a"
b0 `"
b0 _"
b0 ^"
b100 ]"
b111001100100000000001100010011 \"
b0 ["
b0 Z"
b0 Y"
b0 X"
b0 W"
b0 V"
b0 U"
b0 T"
b0 S"
b0 R"
b0 Q"
b0 P"
b0 O"
b0 N"
b0 M"
b0 L"
b0 K"
b0 J"
b0 I"
0H"
b0 G"
b0 F"
b0 E"
b0 D"
b0 C"
b0 B"
b0 A"
b0 @"
b0 ?"
b0 >"
b0 ="
b0 <"
b0 ;"
bz :"
b0 9"
b0 8"
b0 7"
b0 6"
b0 5"
b0 4"
b0 3"
b0 2"
b0 1"
b0 0"
b0 /"
b0 ."
b0 -"
b0 ,"
b10 +"
b0 *"
b0 )"
b0 ("
b10 '"
b0 &"
b0 %"
b10 $"
b0 #"
b0 ""
b0 !"
b0 ~
b0 }
b0 |
0{
1z
b0 y
b0 x
0w
0v
0u
0t
0s
0r
b0 q
b0 p
0o
0n
1m
b0 l
b0 k
0j
b0 i
b0 h
b0 g
0f
b0 e
b0 d
b0 c
0b
0a
b0 `
0_
b0 ^
0]
0\
0[
b0 Z
b0 Y
b0 X
0W
b0 V
b0 U
0T
b0 S
b0 R
0Q
b0 P
b0 O
0N
1M
b0 L
b100 K
b111001100100000000001100010011 J
b0 I
b0 H
0G
0F
0E
0D
0C
b0 B
b0 A
0@
0?
b0 >
b0 =
b0 <
b0 ;
b0 :
09
b0 8
07
06
05
04
b0 3
02
11
00
0/
b0 .
0-
0,
b0 +
b0 *
0)
b0 (
b0 '
0&
0%
0$
0#
bz "
0!
$end
#1000
b11100110010 3
b11100110010 w"
b11100110010 <#
b11100110010 I
b11100110010 x"
b11100110010 F#
b1110011001 S
b1110011001 N"
b1110011001 8#
b1110011001 E#
b11 c
b11 Q"
b11 }"
1T
1b
1/
b11 |
b11 |"
b11 !#
1{
b11000000010001000100011 J
b11000000010001000100011 \"
b11000000010001000100011 :#
b100000 9#
b11001 K"
b110 I"
b10011 ~"
b11001 A#
b1000 K
b1000 ]"
b1000 t"
b100 L
b100 ^"
b100 u"
b100 ;#
b100 =#
b10011 Z
b10011 _"
b10011 )#
b10011 3#
b11001 O
b11001 d"
b11001 +#
b11001 5#
b111001100100000000001100010011 R
b111001100100000000001100010011 b"
b111001100100000000001100010011 7#
b100 X
b100 O"
b100 a"
bz A
bz B"
1!
#2000
0!
#3000
b1000 I
b1000 x"
b1000 F#
b100 S
b100 N"
b100 8#
b100 E#
b0 c
b0 Q"
b0 }"
0T
1\
b1110011001 x
b1110011001 ("
b1110011001 9"
0z
15
b0 |
b0 |"
b0 !#
0/
1{
b1110011001 ~
b1110011001 %"
b1110011001 7"
b100000 9#
b10 G"
b110 K"
b100 I"
b10 y"
b100011 ~"
b110 A#
b1100 3
b1100 w"
b1100 <#
b100 ^
b100 f"
b100 v"
b10000000000001010000011 J
b10000000000001010000011 \"
b10000000000001010000011 :#
b110 i
b110 ="
b110 W"
b110 2#
b11001 d
b11001 <"
b11001 ["
b11001 (#
b100 p
b100 ?"
b100 T"
b1110011001 k
b1110011001 8"
b1110011001 V"
b11 y
b11 *"
b11 R"
1w
1n
b100011 Z
b100011 _"
b100011 )#
b100011 3#
b110 O
b110 d"
b110 +#
b110 5#
b11000000010001000100011 R
b11000000010001000100011 b"
b11000000010001000100011 7#
b100 Y
b100 P"
b100 `"
b100 e"
b1000 X
b1000 O"
b1000 a"
b1100 K
b1100 ]"
b1100 t"
b1000 L
b1000 ^"
b1000 u"
b1000 ;#
b1000 =#
1!
#4000
0!
#5000
1T
0\
1[
1]
1z
1/
14
17
1{
05
b100 x
b100 ("
b100 9"
b10100000010000000100011 J
b10100000010000000100011 \"
b10100000010000000100011 :#
b100000 9#
b0 G"
b100 K"
b101 I"
b0 y"
b11 ~"
b100 A#
b10000 3
b10000 w"
b10000 <#
b1000 ^
b1000 f"
b1000 v"
b100 ~
b100 %"
b100 7"
b1110011001 }
b1110011001 5"
b1110011001 6"
b1110011001 ;"
b10 ""
b10 1"
b10 1#
b10000 K
b10000 ]"
b10000 t"
b1100 L
b1100 ^"
b1100 u"
b1100 ;#
b1100 =#
b11 Z
b11 _"
b11 )#
b11 3#
b100 O
b100 d"
b100 +#
b100 5#
b10000000000001010000011 R
b10000000000001010000011 b"
b10000000000001010000011 7#
b1000 Y
b1000 P"
b1000 `"
b1000 e"
b1100 X
b1100 O"
b1100 a"
b10 l
b10 )"
b10 >"
b10 U"
b100 i
b100 ="
b100 W"
b100 2#
b110 d
b110 <"
b110 ["
b110 (#
b1000 p
b1000 ?"
b1000 T"
b100 q
b100 S"
b100 k
b100 8"
b100 V"
b0 y
b0 *"
b0 R"
1s
0n
b110 ;
b110 D"
b110 j"
b110 ,#
b110 -#
b110 6#
b11001 8
b11001 E"
b11001 .#
b1110011001 H
b1110011001 -"
b1110011001 2"
b1110011001 @"
b1110011001 h"
b1110011001 "#
b100 B
b100 A"
b100 i"
1?
1!
#6000
0!
#7000
b0 I
b0 x"
b0 F#
b0 S
b0 N"
b0 8#
b0 E#
b1110011001 `
b1110011001 q"
b1110011001 B#
0T
0b
0[
0]
0z
15
0/
1{
04
07
b1110011001 (
b1110011001 ."
b1110011001 3"
b1110011001 r"
b1110011001 I#
b0 }
b0 5"
b0 6"
b0 ;"
b1110011001 >
b1110011001 $#
b1110011001 L#
b0 ""
b0 1"
b0 1#
01
0m
0M
b100000 9#
b10 G"
b101 K"
b0 I"
b10 y"
b100011 ~"
b101 A#
b1100 3
b1100 w"
b1100 <#
b1100 ^
b1100 f"
b1100 v"
b10000000110000000001100011 J
b10000000110000000001100011 \"
b10000000110000000001100011 :#
b110 '
b110 o"
b110 /#
b110 C#
b1110011001 .
b1110011001 l"
b1110011001 G#
b100 +
b100 m"
b100 p"
1)
b10 <
b10 C"
b10 ##
b100 ;
b100 D"
b100 j"
b100 ,#
b100 -#
b100 6#
b110 8
b110 E"
b110 .#
b100 H
b100 -"
b100 2"
b100 @"
b100 h"
b100 "#
b1110011001 :
b1110011001 F"
b1110011001 J#
b1000 B
b1000 A"
b1000 i"
0?
1D
b0 l
b0 )"
b0 >"
b0 U"
b101 i
b101 ="
b101 W"
b101 2#
b100 d
b100 <"
b100 ["
b100 (#
b1100 p
b1100 ?"
b1100 T"
b1000 q
b1000 S"
1t
1r
0s
1n
b100011 Z
b100011 _"
b100011 )#
b100011 3#
b101 O
b101 d"
b101 +#
b101 5#
b10100000010000000100011 R
b10100000010000000100011 b"
b10100000010000000100011 7#
b1100 Y
b1100 P"
b1100 `"
b1100 e"
b10000 X
b10000 O"
b10000 a"
b10100 K
b10100 ]"
b10100 t"
b10000 L
b10000 ^"
b10000 u"
b10000 ;#
b10000 =#
1!
#8000
0!
#9000
b11111111111111111111111110011001 =
b11111111111111111111111110011001 k"
b11111111111111111111111110011001 %#
b100 x
b100 ("
b100 9"
1b
1\
b100 `
b100 q"
b100 B#
b100 }
b100 5"
b100 6"
b100 ;"
b100 ~
b100 %"
b100 7"
b0 >
b0 $#
b0 L#
11
1m
1M
b100 (
b100 ."
b100 3"
b100 r"
b100 I#
b10 ""
b10 1"
b10 1#
b10 l
b10 )"
b10 >"
b10 U"
b0 i
b0 ="
b0 W"
b0 2#
b101 d
b101 <"
b101 ["
b101 (#
b10000 p
b10000 ?"
b10000 T"
b1100 q
b1100 S"
b0 k
b0 8"
b0 V"
0t
0r
0w
0n
b0 <
b0 C"
b0 ##
b101 ;
b101 D"
b101 j"
b101 ,#
b101 -#
b101 6#
b100 8
b100 E"
b100 .#
b0 :
b0 F"
b0 J#
b1100 B
b1100 A"
b1100 i"
1C
1?
1E
0D
b100 '
b100 o"
b100 /#
b100 C#
b100 .
b100 l"
b100 G#
b1000 +
b1000 m"
b1000 p"
0)
1!
#10000
0!
#11000
b100000 I
b100000 x"
b100000 F#
b10000 S
b10000 N"
b10000 8#
b10000 E#
b1 c
b1 Q"
b1 }"
0b
0\
1a
b11111111111111111111111110011001 `
b11111111111111111111111110011001 q"
b11111111111111111111111110011001 B#
b11111111111111111111111110011001 }
b11111111111111111111111110011001 5"
b11111111111111111111111110011001 6"
b11111111111111111111111110011001 ;"
b0 x
b0 ("
b0 9"
b1 |
b1 |"
b1 !#
1%
0{
05
b11111111111111111111111110011001 (
b11111111111111111111111110011001 ."
b11111111111111111111111110011001 3"
b11111111111111111111111110011001 r"
b11111111111111111111111110011001 I#
b100 >
b100 $#
b100 L#
b1 ""
b1 1"
b1 1#
b0 ~
b0 %"
b0 7"
b100000 9#
b0 G"
b0 K"
b110 J"
b0 y"
b1100011 ~"
b0 A#
b1110011001 V
b1110011001 M"
b1110011001 g"
b1110011001 {"
b1110011001 >#
b110 @#
b110000 3
b110000 w"
b110000 <#
b10000 ^
b10000 f"
b10000 v"
b10111000000011 J
b10111000000011 \"
b10111000000011 :#
b101 '
b101 o"
b101 /#
b101 C#
b11111111111111111111111110011001 *
b11111111111111111111111110011001 n"
b11111111111111111111111110011001 H#
b11111111111111111111111110011001 K#
b1100 +
b1100 m"
b1100 p"
1-
1,
1)
b10 <
b10 C"
b10 ##
b0 ;
b0 D"
b0 j"
b0 ,#
b0 -#
b0 6#
b101 8
b101 E"
b101 .#
b100 :
b100 F"
b100 J#
b10000 B
b10000 A"
b10000 i"
0C
0?
0E
1s
1w
b1100011 Z
b1100011 _"
b1100011 )#
b1100011 3#
b0 O
b0 d"
b0 +#
b0 5#
b110 P
b110 c"
b110 *#
b110 4#
b10000000110000000001100011 R
b10000000110000000001100011 b"
b10000000110000000001100011 7#
b10000 Y
b10000 P"
b10000 `"
b10000 e"
b10100 X
b10100 O"
b10100 a"
b11000 K
b11000 ]"
b11000 t"
b10100 L
b10100 ^"
b10100 u"
b10100 ;#
b10100 =#
1!
#12000
0!
#13000
b0 I
b0 x"
b0 F#
b0 S
b0 N"
b0 8#
b0 E#
b0 c
b0 Q"
b0 }"
1T
1b
1[
1]
0a
1/
1{
14
17
b0 |
b0 |"
b0 !#
0%
b1110011001 x
b1110011001 ("
b1110011001 9"
b100 `
b100 q"
b100 B#
b1110000101001110001100011 J
b1110000101001110001100011 \"
b1110000101001110001100011 :#
b100000 9#
b10 G"
b0 J"
b11100 I"
b10 y"
b11 ~"
b0 V
b0 M"
b0 g"
b0 {"
b0 >#
b0 @#
b10100 3
b10100 w"
b10100 <#
b10100 ^
b10100 f"
b10100 v"
b1100 $"
b1100 '"
b1100 +"
b1110011001 !"
b1110011001 &"
b1110011001 0"
b0 }
b0 5"
b0 6"
b0 ;"
b11111111111111111111111110011001 >
b11111111111111111111111110011001 $#
b11111111111111111111111110011001 L#
b100 (
b100 ."
b100 3"
b100 r"
b100 I#
b0 ""
b0 1"
b0 1#
b11100 K
b11100 ]"
b11100 t"
b11000 L
b11000 ^"
b11000 u"
b11000 ;#
b11000 =#
b11 Z
b11 _"
b11 )#
b11 3#
b0 P
b0 c"
b0 *#
b0 4#
b10111000000011 R
b10111000000011 b"
b10111000000011 7#
b10100 Y
b10100 P"
b10100 `"
b10100 e"
b11000 X
b11000 O"
b11000 a"
b0 l
b0 )"
b0 >"
b0 U"
b110 e
b110 Z"
b110 '#
b0 d
b0 <"
b0 ["
b0 (#
b10100 p
b10100 ?"
b10100 T"
b10000 q
b10000 S"
b1110011001 h
b1110011001 /"
b1110011001 X"
b10000 k
b10000 8"
b10000 V"
b1 y
b1 *"
b1 R"
1v
0s
0w
b0 H
b0 -"
b0 2"
b0 @"
b0 h"
b0 "#
b11111111111111111111111110011001 :
b11111111111111111111111110011001 F"
b11111111111111111111111110011001 J#
1D
b0 '
b0 o"
b0 /#
b0 C#
b10000 +
b10000 m"
b10000 p"
0-
0,
0)
1!
#14000
0!
#15000
b11000 I
b11000 x"
b11000 F#
b1100 S
b1100 N"
b1100 8#
b1100 E#
b0 `
b0 q"
b0 B#
b0 x
b0 ("
b0 9"
0T
0b
0[
0]
b1 |
b1 |"
b1 !#
1%
0/
0{
04
07
1z
b0 (
b0 ."
b0 3"
b0 r"
b0 I#
b0 >
b0 $#
b0 L#
b0 !"
b0 &"
b0 0"
b10 $"
b10 '"
b10 +"
01
0m
0M
b100000 9#
b1 G"
b11100 K"
b101 J"
b11000 I"
b1 y"
b1100011 ~"
b11100 A#
b11111111111111111111111110011001 V
b11111111111111111111111110011001 M"
b11111111111111111111111110011001 g"
b11111111111111111111111110011001 {"
b11111111111111111111111110011001 >#
b101 @#
b110000 3
b110000 w"
b110000 <#
b11000 ^
b11000 f"
b11000 v"
b1110000101000001110110011 J
b1110000101000001110110011 \"
b1110000101000001110110011 :#
b0 .
b0 l"
b0 G#
b0 <
b0 C"
b0 ##
b0 8
b0 E"
b0 .#
b1110011001 H
b1110011001 -"
b1110011001 2"
b1110011001 @"
b1110011001 h"
b1110011001 "#
b0 :
b0 F"
b0 J#
b10100 B
b10100 A"
b10100 i"
1G
0D
b10 l
b10 )"
b10 >"
b10 U"
b11100 i
b11100 ="
b11100 W"
b11100 2#
b0 e
b0 Z"
b0 '#
b11000 p
b11000 ?"
b11000 T"
b10100 q
b10100 S"
b0 h
b0 /"
b0 X"
b0 k
b0 8"
b0 V"
b0 y
b0 *"
b0 R"
0v
1t
1r
1w
1n
b1100011 Z
b1100011 _"
b1100011 )#
b1100011 3#
b11100 O
b11100 d"
b11100 +#
b11100 5#
b101 P
b101 c"
b101 *#
b101 4#
b1110000101001110001100011 R
b1110000101001110001100011 b"
b1110000101001110001100011 7#
b11000 Y
b11000 P"
b11000 `"
b11000 e"
b11100 X
b11100 O"
b11100 a"
b100000 K
b100000 ]"
b100000 t"
b11100 L
b11100 ^"
b11100 u"
b11100 ;#
b11100 =#
1!
#16000
0!
